<?xml version="1.0" encoding="UTF-8"?>
<svg width="36px" height="25px" viewBox="0 0 36 25" version="1.1" xmlns="http://www.w3.org/2000/svg" xmlns:xlink="http://www.w3.org/1999/xlink">
    <!-- Generator: sketchtool 61 (101010) - https://sketch.com -->
    <title>6DD3BB93-B71E-427E-80F4-61062268F9CA</title>
    <desc>Created with sketchtool.</desc>
    <g id="Education-Providers-Page" stroke="none" stroke-width="1" fill="none" fill-rule="evenodd">
        <g id="Provider-Profiles-Default-Desktop" transform="translate(-383.000000, -527.000000)" fill="#8DC63F">
            <path d="M401,527 C400.894737,527 400.578947,527 400.263158,527.104167 L400.157895,527.104167 L384.789474,531.895833 L384.684211,531.895833 C383.631579,532.3125 383,533.25 383,534.291667 C383,535.333333 383.631579,536.270833 384.684211,536.6875 L384.789474,536.6875 L387.105263,537.416667 C386.894737,538.145833 386.684211,538.979167 386.684211,539.604167 C386.052632,540.333333 385.736842,541.166667 385.736842,542.104167 C385.736842,542.9375 385.947368,543.666667 386.368421,544.291667 L385.736842,549.1875 C385.631579,549.916667 385.842105,550.645833 386.368421,551.166667 C386.894737,551.6875 387.526316,552 388.263158,552 L390.894737,552 C391.631579,552 392.368421,551.6875 392.789474,551.166667 C393.210526,550.645833 393.421053,549.916667 393.421053,549.291667 L393.105263,547.104167 C395.315789,548.25 398.368421,548.666667 401,548.666667 C404.368421,548.666667 408.789474,547.9375 410.789474,545.75 C411.736842,544.708333 411.947368,543.666667 411.947368,542.9375 L411.736842,538.666667 L411.736842,538.5625 L417.210526,536.895833 L417.315789,536.895833 C418.368421,536.479167 419,535.541667 419,534.5 C419,533.458333 418.368421,532.520833 417.315789,532.104167 L417.210526,532.104167 L401.842105,527.3125 L401.736842,527.3125 C401.421053,527 401.105263,527 401,527 M409.526316,538.666667 L409.736842,542.9375 C409.842105,544.8125 405.842105,546.375 401,546.375 C396.157895,546.375 392.157895,544.8125 392.263158,542.9375 L392.473684,538.666667 L400.368421,541.166667 C400.578947,541.270833 400.789474,541.270833 401,541.270833 C401.210526,541.270833 401.421053,541.270833 401.631579,541.166667 L409.526316,538.666667 M401,529.083333 L401.105263,529.083333 L416.473684,533.875 C416.684211,533.979167 416.789474,534.083333 416.789474,534.291667 C416.789474,534.5 416.684211,534.604167 416.473684,534.708333 L401.105263,539.5 L401,539.5 L400.894737,539.5 L391.947368,536.6875 C391.210526,537.3125 390.578947,538.770833 390.473684,540.645833 C391,540.958333 391.315789,541.479167 391.315789,542.104167 C391.315789,542.729167 391,543.25 390.473684,543.5625 L391.315789,549.395833 C391.315789,549.5 391.315789,549.604167 391.210526,549.708333 C391.105263,549.8125 391,549.8125 390.894737,549.8125 L388.263158,549.8125 C388.157895,549.8125 388.052632,549.708333 387.947368,549.708333 C387.842105,549.604167 387.842105,549.5 387.842105,549.395833 L388.684211,543.5625 C388.157895,543.25 387.842105,542.729167 387.842105,542.104167 C387.842105,541.479167 388.263158,540.854167 388.684211,540.645833 C388.789474,539.083333 389.210526,537.3125 390.052632,536.166667 L385.526316,534.708333 C385.315789,534.604167 385.210526,534.5 385.210526,534.291667 C385.210526,534.083333 385.315789,533.979167 385.526316,533.875 L400.894737,529.083333 L401,529.083333" id="Fill-1-1"></path>
        </g>
    </g>
</svg>